<svg xmlns="http://www.w3.org/2000/svg" width="20" height="26.662" viewBox="0 0 20 26.662">
  <path id="bolt-solid-status" d="M48.488,2.314A1.667,1.667,0,0,0,45.859.4L32.528,12.067a1.667,1.667,0,0,0,1.1,2.921h5.806l-4,9.342a1.667,1.667,0,0,0,2.63,1.911l13.33-11.664a1.663,1.663,0,0,0-1.1-2.916H44.484Z" transform="translate(-31.959 0.009)" fill="#b2b3c5"/>
</svg>
