<svg xmlns="http://www.w3.org/2000/svg" width="12.828" height="21.657" viewBox="0 0 12.828 21.657">
  <path id="chevron-right-g" d="M17,22,9,14l8-8" transform="translate(19.828 24.828) rotate(180)" fill="none" stroke="#bdbecd" stroke-linecap="round" stroke-linejoin="round" stroke-width="4"/>
</svg>
