<svg xmlns="http://www.w3.org/2000/svg" width="25.909" height="30" viewBox="0 0 25.909 30">
  <g id="notification_icon" transform="translate(-3.045 -1)">
    <g id="Group_7966" data-name="Group 7966">
      <path id="Path_16980" data-name="Path 16980" d="M26.8,25H5.2a2.144,2.144,0,0,1-1.9-1.1,2.172,2.172,0,0,1,.1-2.2L4.5,20a16.107,16.107,0,0,0,2.7-9,8.843,8.843,0,0,1,5.9-8.3,3.324,3.324,0,0,1,5.8,0A8.843,8.843,0,0,1,24.8,11a16.107,16.107,0,0,0,2.7,9l1.1,1.7a2.173,2.173,0,0,1,.1,2.2A2.036,2.036,0,0,1,26.8,25Z" fill="#b2b3c5"/>
    </g>
    <path id="Path_16981" data-name="Path 16981" d="M11.1,27a5,5,0,0,0,9.8,0Z" fill="#b2b3c5"/>
  </g>
</svg>
